Exploratory Data Analysis
…
#Q2
#Does Walt Disney Pictures have a larger/smaller budget for Fantasy and Action movies that release in certain months?

#Extract month from release date
df <- separate(data = fullmovies,col = "release_date",into = c("year","month","day"))
df$month <- factor(df$month)
df %>% 
  group_by(month)

## # A tibble: 1,434 x 25
## # Groups:   month [12]
##    budget    id original_langua popularity year  month day   revenue
##     <int> <int> <chr>                 <dbl> <chr> <fct> <chr>   <dbl>
##  1 1.10e7    11 en                    126.  1977  05    25     7.75e8
##  2 9.40e7    12 en                     85.7 2003  05    30     9.40e8
##  3 1.50e7    14 en                     80.9 1999  09    15     3.56e8
##  4 1.40e8    22 en                    272.  2003  07    09     6.55e8
##  5 3.00e7    24 en                     79.8 2003  10    10     1.81e8
##  6 3.15e7    28 en                     50.0 1979  08    15     8.95e7
##  7 7.50e7    35 en                     46.9 2007  07    25     5.27e8
##  8 2.00e7    38 en                     56.5 2004  03    19     7.23e7
##  9 2.00e8    58 en                    146.  2006  06    20     1.07e9
## 10 4.10e7    65 en                     32.8 2002  11    08     2.15e8
## # ... with 1,424 more rows, and 17 more variables: runtime <int>,
## #   tagline <chr>, title <chr>, Action <dbl>, Comedy <dbl>, Drama <dbl>,
## #   Thriller <dbl>, Fantasy <dbl>, `Walt Disney Pictures` <dbl>,
## #   `Universal Pictures` <dbl>, `Warner Bros.` <dbl>, `Columbia
## #   Pictures` <dbl>, `Paramount Pictures` <dbl>, `Relativity Media` <dbl>,
## #   `Twentieth Century Fox Film Corporation` <dbl>, `New Line
## #   Cinema` <dbl>, Month <chr>
…
